br\com\projeto\controller\LivroController.class
br\com\projeto\model\Autor.class
br\com\projeto\service\AutorService.class
br\com\projeto\repository\LivroRepository.class
br\com\projeto\AppMain.class
br\com\projeto\model\Livro.class
br\com\projeto\controller\PageController.class
br\com\projeto\model\Livro$LivroBuilder.class
br\com\projeto\model\Autor$AutorBuilder.class
br\com\projeto\repository\AutorRepository.class
br\com\projeto\controller\AppController.class
br\com\projeto\controller\AutorController.class
br\com\projeto\service\LivroService.class
